{
    "name": "Wallet",
    "alias": "wallet",
    "description": "",
    "keywords": [],
    "active": 1,
    "order": 0,
    "providers": [
        "Modules\\Wallet\\Providers\\WalletServiceProvider"
    ],
    "aliases": {},
    "files": [],
    "requires": []
}
