{
    "name": "Dorris",
    "alias": "dorris",
    "description": "",
    "keywords": [],
    "active": 1,
    "order": 0,
    "providers": [
        "Modules\\Dorris\\Providers\\DorrisServiceProvider"
    ],
    "aliases": {},
    "files": [],
    "requires": []
}
